project/ZedBoard/.Xil/Vivado-17872-DESKTOP-3GDJ0OK/hw_ila_data_1/zip_work/waveform.vcd
$date
        2021-Nov-21 08:46:58
$end
$version
        Vivado v2018.2 (64-bit)
$end
$timescale
        1ps
$end
$scope module dut $end
$var reg 4 " system_i/system_ila_0/inst/probe0_1 [3:0] $end
$var reg 4 & system_i/system_ila_0/inst/probe1_1 [3:0] $end
$var reg 4 * system_i/system_ila_0/inst/probe2_1 [3:0] $end
$var reg 1 . system_i/system_ila_0/inst/probe3_1 $end
$var reg 1 / system_i/system_ila_0/inst/probe4_1 $end
$var reg 1 0 _TRIGGER $end
$var reg 1 1 _WINDOW $end
$var reg 1 2 _GAP $end
$upscope $end
$enddefinitions $end
#0
$dumpvars
b1 "
b1 &
b1 *
1.
1/
00
11
02
$end
#100
10
#128
01
#228
00
#256
11
#356
10
#384
01
#484
00
#512
11
#612
10
#640
01
#740
00
#768
11
#868
10
#896
01
#996
00
#1024
11
#1124
10
#1152
01
#1252
00
#1280
11
#1380
10
#1408
01
#1508
00
#1536
b0 "
b0 &
b0 *
11
#1636
b1 "
b1 &
b1 *
10
#1664
01
#1764
00
#1792
11
#1892
10
#1920
01
#2020
00
#2048
11
#2148
10
#2176
01
#2276
00
#2304
11
#2404
10
#2432
01
#2532
00
#2560
11
#2660
10
#2688
01
#2788
00
#2816
11
#2916
10
#2944
01
#3044
00
#3072
11
#3172
10
#3200
01
#3300
00
#3328
11
#3428
10
#3456
01
#3556
00
#3584
11
#3684
10
#3712
01
#3812
00
#3840
11
#3940
10
#3968
01
#4068
00
#4096
b0 "
b0 &
b0 *
11
#4196
b1 "
b1 &
b1 *
10
#4224
01
#4324
00
#4352
11
#4452
10
#4480
01
#4580
00
#4608
11
#4708
10
#4736
01
#4836
00
#4864
11
#4964
10
#4992
01
#5092
00
#5120
11
#5220
10
#5248
01
#5348
00
#5376
11
#5476
10
#5504
01
#5604
00
#5632
11
#5732
10
#5760
01
#5860
00
#5888
11
#5988
10
#6016
01
#6116
00
#6144
11
#6244
10
#6272
01
#6372
00
#6400
11
#6500
10
#6528
01
#6628
00
#6656
b0 "
b0 &
b0 *
11
#6756
b1 "
b1 &
b1 *
10
#6784
01
#6884
00
#6912
11
#7012
10
#7040
01
#7140
00
#7168
11
#7268
10
#7296
01
#7396
00
#7424
11
#7524
10
#7552
01
#7652
00
#7680
11
#7780
10
#7808
01
#7908
00
#7936
11
#8036
10
#8064
01
#8164
00
#8192
11
#8292
10
#8320
01
#8420
00
#8448
11
#8548
10
#8576
01
#8676
00
#8704
11
#8804
10
#8832
01
#8932
00
#8960
11
#9060
10
#9088
01
#9188
00
#9216
b0 "
b0 &
b0 *
11
#9316
b1 "
b1 &
b1 *
10
#9344
01
#9444
00
#9472
11
#9572
10
#9600
01
#9700
00
#9728
11
#9828
10
#9856
01
#9956
00
#9984
11
#10084
10
#10112
01
#10212
00
#10240
11
#10340
10
#10368
01
#10468
00
#10496
11
#10596
10
#10624
01
#10724
00
#10752
11
#10852
10
#10880
01
#10980
00
#11008
11
#11108
10
#11136
01
#11236
00
#11264
11
#11364
10
#11392
01
#11492
00
#11520
11
#11620
10
#11648
01
#11748
00
#11776
b0 "
b0 &
b0 *
11
#11876
b1 "
b1 &
b1 *
10
#11904
01
#12004
00
#12032
11
#12132
10
#12160
01
#12260
00
#12288
11
#12388
10
#12416
01
#12516
00
#12544
11
#12644
10
#12672
01
#12772
00
